<svg width="56" height="56" viewBox="0 0 56 56" fill="none" xmlns="http://www.w3.org/2000/svg">
<path fill-rule="evenodd" clip-rule="evenodd" d="M36.8001 13.859C36.4369 14.0527 36.1585 14.3069 35.9648 14.6216V11.4623H33.8949V20.4198H35.9648V19.4756C36.1666 19.7904 36.445 20.0446 36.8001 20.2382C37.1551 20.4238 37.5707 20.5166 38.0469 20.5166C38.6037 20.5166 39.108 20.3754 39.56 20.093C40.0119 19.8025 40.3669 19.3949 40.6252 18.8704C40.8915 18.3378 41.0246 17.7245 41.0246 17.0305C41.0246 16.3365 40.8915 15.7272 40.6252 15.2026C40.3669 14.6781 40.0119 14.2746 39.56 13.9922C39.108 13.7097 38.6037 13.5685 38.0469 13.5685C37.5788 13.5685 37.1632 13.6653 36.8001 13.859ZM38.4826 15.82C38.7731 16.1105 38.9184 16.514 38.9184 17.0305C38.9184 17.5469 38.7731 17.9585 38.4826 18.2652C38.1921 18.5637 37.8411 18.713 37.4295 18.713C37.018 18.713 36.6669 18.5637 36.3764 18.2652C36.094 17.9666 35.9527 17.559 35.9527 17.0426C35.9527 16.5261 36.094 16.1186 36.3764 15.82C36.6669 15.5214 37.018 15.3721 37.4295 15.3721C37.8491 15.3721 38.2002 15.5214 38.4826 15.82Z" fill="#000714"/>
<path d="M11.7702 20.4198V11.9223H9.33712L6.97669 17.8052L4.59206 11.9223H2.14689V20.4198H4.21681V15.3116L6.12936 20.4198H7.79982L9.70026 15.3237V20.4198H11.7702Z" fill="#000714"/>
<path fill-rule="evenodd" clip-rule="evenodd" d="M19.7105 17.5389C19.7347 17.3291 19.7468 17.1273 19.7468 16.9336C19.7468 16.2558 19.6016 15.6626 19.3111 15.1542C19.0286 14.6458 18.6332 14.2544 18.1248 13.9801C17.6164 13.7057 17.0354 13.5685 16.3817 13.5685C15.7119 13.5685 15.1188 13.7097 14.6023 13.9922C14.0858 14.2746 13.6823 14.6781 13.3918 15.2026C13.1094 15.7272 12.9682 16.3405 12.9682 17.0426C12.9682 17.7446 13.1134 18.358 13.4039 18.8825C13.6945 19.407 14.0979 19.8105 14.6144 20.093C15.1309 20.3754 15.72 20.5166 16.3817 20.5166C16.9305 20.5166 17.4268 20.4158 17.8706 20.214C18.3144 20.0123 18.6816 19.7339 18.9721 19.3788C19.2707 19.0237 19.4765 18.6243 19.5895 18.1804H17.3864C17.1847 18.6162 16.8256 18.8341 16.3091 18.8341C15.9621 18.8341 15.6675 18.7251 15.4254 18.5072C15.1914 18.2813 15.0583 17.9585 15.026 17.5389H19.7105ZM17.2654 15.5416C17.5075 15.7514 17.6285 16.0338 17.6285 16.3889H15.0381C15.0946 16.0177 15.2398 15.7312 15.4739 15.5295C15.7159 15.3277 16.0105 15.2269 16.3575 15.2269C16.7206 15.2269 17.0233 15.3318 17.2654 15.5416Z" fill="#000714"/>
<path d="M29.5784 13.5927C30.4177 13.5927 31.0835 13.8469 31.5757 14.3553C32.0761 14.8637 32.3262 15.5698 32.3262 16.4736V20.4198H30.2684V16.7521C30.2684 16.3163 30.1514 15.9814 29.9174 15.7474C29.6914 15.5053 29.3767 15.3842 28.9732 15.3842C28.5697 15.3842 28.251 15.5053 28.0169 15.7474C27.791 15.9814 27.678 16.3163 27.678 16.7521V20.4198H25.6202V16.7521C25.6202 16.3163 25.5032 15.9814 25.2692 15.7474C25.0432 15.5053 24.7285 15.3842 24.325 15.3842C23.9215 15.3842 23.6027 15.5053 23.3687 15.7474C23.1428 15.9814 23.0298 16.3163 23.0298 16.7521V20.4198H20.9599V13.6653H23.0298V14.5127C23.2396 14.2302 23.514 14.0083 23.8529 13.8469C24.1918 13.6775 24.5751 13.5927 25.0028 13.5927C25.5112 13.5927 25.9632 13.7017 26.3586 13.9195C26.7621 14.1374 27.0768 14.4481 27.3028 14.8516C27.5368 14.4804 27.8555 14.1778 28.259 13.9438C28.6625 13.7097 29.1023 13.5927 29.5784 13.5927Z" fill="#000714"/>
<path fill-rule="evenodd" clip-rule="evenodd" d="M48.5987 16.9336C48.5987 17.1273 48.5866 17.3291 48.5624 17.5389H43.8779C43.9101 17.9585 44.0433 18.2813 44.2773 18.5072C44.5194 18.7251 44.814 18.8341 45.161 18.8341C45.6774 18.8341 46.0365 18.6162 46.2383 18.1804H48.4413C48.3284 18.6243 48.1226 19.0237 47.824 19.3788C47.5335 19.7339 47.1663 20.0123 46.7225 20.214C46.2786 20.4158 45.7823 20.5166 45.2336 20.5166C44.5719 20.5166 43.9828 20.3754 43.4663 20.093C42.9498 19.8105 42.5463 19.407 42.2558 18.8825C41.9653 18.358 41.82 17.7446 41.82 17.0426C41.82 16.3405 41.9613 15.7272 42.2437 15.2026C42.5342 14.6781 42.9377 14.2746 43.4542 13.9922C43.9707 13.7097 44.5638 13.5685 45.2336 13.5685C45.8872 13.5685 46.4683 13.7057 46.9767 13.9801C47.4851 14.2544 47.8805 14.6458 48.1629 15.1542C48.4535 15.6626 48.5987 16.2558 48.5987 16.9336ZM46.4804 16.3889C46.4804 16.0338 46.3593 15.7514 46.1172 15.5416C45.8751 15.3318 45.5725 15.2269 45.2094 15.2269C44.8624 15.2269 44.5678 15.3277 44.3257 15.5295C44.0917 15.7312 43.9464 16.0177 43.89 16.3889H46.4804Z" fill="#000714"/>
<path d="M52.7895 13.9195C52.4264 14.1294 52.1237 14.4199 51.8816 14.7911V13.6653H49.8117V20.4198H51.8816V17.2847C51.8816 16.7278 52.0108 16.3405 52.269 16.1226C52.5272 15.8967 52.9146 15.7837 53.4311 15.7837H54V13.5927C53.5561 13.5927 53.1526 13.7017 52.7895 13.9195Z" fill="#000714"/>
<path fill-rule="evenodd" clip-rule="evenodd" d="M21.2876 23.2355H14.1813V43.4496H20.0358C27.2526 43.4496 31.781 40.136 31.781 33.3244C31.781 27.1751 27.6944 23.2355 21.2876 23.2355ZM20.4681 27.8866C20.6103 27.8788 20.7357 27.872 20.8474 27.872C23.9401 27.872 26.2231 29.6393 26.2231 33.2107C26.2231 37.3712 23.4247 38.8073 19.8165 38.8073V27.9084C20.067 27.9084 20.2819 27.8967 20.4681 27.8866Z" fill="#000714"/>
<path d="M53.7999 23.7812V29.1205C52.253 28.1629 51.0748 27.6105 49.4546 27.6103C46.5092 27.6103 44.1528 29.893 44.1528 33.0229C44.1528 36.2267 46.4725 38.3985 49.4546 38.3985C51.0015 38.3985 52.1427 37.9567 53.7996 36.9261V42.2648C52.6948 43.1115 51.2593 43.5538 49.1606 43.5538C43.2689 43.5538 38.593 39.2088 38.593 33.2807C38.593 27.3527 43.3428 22.8607 49.2709 22.8607C51.0748 22.8607 52.3638 23.1922 53.7999 23.7812Z" fill="#000714"/>
<path d="M1.99097 43.4496V23.2355H13.405V27.9118H7.58752L7.62448 31.0417H13.0001V35.7176H7.58752L7.55056 43.4496H1.99097Z" fill="#000714"/>
<path d="M37.9305 43.4496H32.3704V23.2355H37.9305V43.4496Z" fill="#000714"/>
</svg>
