<svg width="24" height="24" viewBox="0 0 24 24" fill="none" xmlns="http://www.w3.org/2000/svg">
<g opacity="0.4">
<path d="M12.5657 4.56567L15.6343 7.6343C16.0627 8.06268 16.2769 8.27687 16.2913 8.46076C16.3039 8.62032 16.2393 8.77624 16.1176 8.88019C15.9773 8.99999 15.6744 8.99999 15.0686 8.99999L8.93136 8.99999C8.32554 8.99999 8.02264 8.99999 7.88237 8.88019C7.76067 8.77624 7.69608 8.62032 7.70864 8.46076C7.72311 8.27687 7.9373 8.06268 8.36567 7.63431L11.4343 4.56567C11.6323 4.36766 11.7313 4.26866 11.8455 4.23156C11.9459 4.19894 12.0541 4.19894 12.1545 4.23156C12.2687 4.26866 12.3677 4.36766 12.5657 4.56567Z" fill="#000714"/>
<path d="M11.4343 19.4343L8.36567 16.3657C7.9373 15.9373 7.72311 15.7231 7.70864 15.5392C7.69608 15.3797 7.76067 15.2237 7.88237 15.1198C8.02264 15 8.32554 15 8.93136 15H15.0686C15.6744 15 15.9773 15 16.1176 15.1198C16.2393 15.2237 16.3039 15.3797 16.2913 15.5392C16.2769 15.7231 16.0627 15.9373 15.6343 16.3657L12.5657 19.4343C12.3677 19.6323 12.2687 19.7313 12.1545 19.7684C12.0541 19.801 11.9459 19.801 11.8455 19.7684C11.7313 19.7313 11.6323 19.6323 11.4343 19.4343Z" fill="#000714"/>
</g>
</svg>
