<svg width="32" height="32" viewBox="0 0 32 32" fill="none" xmlns="http://www.w3.org/2000/svg">
<path d="M19.2207 20.5177C19.0771 20.8169 18.9131 21.0837 18.7333 21.3101C18.5548 21.5361 18.37 21.7163 18.1844 21.8465C18.023 21.961 17.8881 22.0488 17.7774 22.0292C17.7058 22.0113 17.7154 21.8852 17.7242 21.8041C17.7491 21.5719 17.8236 21.3371 17.9451 21.1058C18.0683 20.8694 18.221 20.6488 18.3979 20.4503C18.5777 20.2526 18.7733 20.0874 18.9797 19.9597C19.142 19.8589 19.3027 19.789 19.4595 19.7512C19.4154 20.0192 19.3351 20.2768 19.2207 20.5177ZM21.1558 15.2616C20.6922 15.1884 20.3572 15.5413 20.2103 15.8892C20.1583 16.0111 20.1433 16.074 20.0934 16.2313C20.0434 16.3861 20.0239 16.503 19.9856 16.6628C19.9581 16.7777 19.9161 16.9562 19.899 17.0353C19.8674 17.1797 19.8636 17.2022 19.8229 17.4215C19.7825 17.6383 19.7558 17.7836 19.7271 17.9758C19.7047 18.1219 19.6826 18.243 19.6601 18.3895C19.3272 18.4677 18.9864 18.6013 18.6476 18.7848C18.2818 18.9829 17.941 19.2434 17.6343 19.5585C17.3267 19.8727 17.0604 20.2443 16.844 20.6609C16.6251 21.0829 16.4861 21.5548 16.4311 22.0629C16.4241 22.1254 16.4199 22.1919 16.4174 22.2619C16.3745 22.2244 16.3321 22.1836 16.2984 22.1328C16.2335 22.0359 16.1864 21.9243 16.1548 21.7887C16.1236 21.6555 16.1049 21.4882 16.1061 21.3571C16.1074 21.2127 16.1128 21.1199 16.1232 21.0246C16.1353 20.9156 16.1498 20.8132 16.1685 20.7196C16.1794 20.6588 16.1869 20.6026 16.1943 20.5477C16.1993 20.5115 16.2039 20.4761 16.2102 20.4412C16.2763 20.0346 16.3055 19.762 16.2655 19.4844C16.2389 19.3005 16.0903 18.9471 15.7183 18.9355C15.6891 18.9347 15.6587 18.9355 15.6267 18.9388C15.3762 18.9625 15.0832 19.0999 14.9038 19.2243C14.665 19.3904 14.4411 19.5976 14.2384 19.8398C14.1523 19.9426 14.0844 20.0354 14.0278 20.1224C14.0636 20.0129 14.1106 19.9035 14.1568 19.7974C14.1855 19.732 14.2138 19.6667 14.2392 19.6009C14.2421 19.5934 14.2455 19.5851 14.2488 19.5776C14.3096 19.4232 14.3728 19.2643 14.387 19.1361C14.399 19.0208 14.3811 18.9268 14.3333 18.8573C14.2937 18.8002 14.2438 18.757 14.1843 18.7278C14.1264 18.702 14.0678 18.6891 14.0103 18.6891C13.9696 18.6879 13.9338 18.6887 13.9092 18.6908C13.7656 18.7033 13.637 18.7478 13.528 18.8202C13.4323 18.8822 13.3511 18.9488 13.2762 19.0266C13.2022 19.1119 13.1372 19.2006 13.0865 19.288C13.0074 19.4153 12.9333 19.5893 12.8609 19.8198C12.7935 20.0337 12.729 20.2726 12.6686 20.5285C12.6095 20.7766 12.5554 21.0325 12.5072 21.2897C12.4597 21.5436 12.4252 21.7666 12.4048 21.9522C12.3807 22.1799 12.3628 22.4008 12.3524 22.6098C12.3407 22.8266 12.3449 23.0243 12.364 23.1957C12.3848 23.3784 12.4289 23.5274 12.4959 23.6385C12.58 23.7767 12.7173 23.8408 12.895 23.8229C12.8984 23.8229 12.9013 23.822 12.9038 23.822C12.9371 23.8175 13.0528 23.8008 13.1605 23.7634C13.2604 23.7288 13.4119 23.6206 13.5401 23.4192C13.6142 23.3043 13.6895 23.0005 13.7802 22.6156C13.8014 22.5274 13.8206 22.4462 13.8368 22.3817C14.1918 20.9959 14.7074 20.705 14.9621 20.6517C14.9446 20.8082 14.9267 20.9647 14.9092 21.1207C14.8968 21.3251 14.8822 21.5061 14.8776 21.7208C14.8834 22.1274 14.9238 22.3596 14.9729 22.5615C15.0291 22.7916 15.1336 23.0696 15.2601 23.2153C15.4091 23.3859 15.5526 23.4978 15.8119 23.4824C15.8127 23.4824 15.8144 23.4824 15.8156 23.482C15.8165 23.482 15.8173 23.482 15.8181 23.482C15.9309 23.4662 15.9879 23.4566 16.109 23.4059C16.2322 23.3472 16.2896 23.3043 16.3966 23.2007C16.4732 23.127 16.5194 23.0555 16.5514 22.9847C16.5984 23.0704 16.658 23.147 16.7308 23.2128C16.8448 23.3147 17.0084 23.3626 17.2169 23.3559C17.2214 23.3555 17.2264 23.3555 17.2314 23.3551C17.2543 23.3539 17.3042 23.3484 17.4653 23.3268C17.6126 23.3072 17.7912 23.249 17.998 23.1558C18.1998 23.0642 18.43 22.921 18.683 22.7313C18.8603 22.5977 19.0434 22.4237 19.2277 22.2132C19.2098 22.5082 19.1953 22.7895 19.3243 23.1757C19.3771 23.3347 19.4462 23.465 19.5536 23.6119C19.6734 23.7733 19.8561 23.8557 20.0984 23.8578H20.1C20.11 23.857 20.1187 23.8566 20.1283 23.8557C20.2436 23.8366 20.3389 23.8066 20.4192 23.7642C20.5016 23.7209 20.5794 23.6576 20.6502 23.5765C20.7355 23.4787 20.7863 23.353 20.8029 23.2011C20.8075 23.1553 20.8054 23.1033 20.795 23.0405C20.785 22.9797 20.7542 22.9327 20.7222 22.8836C20.7089 22.8645 20.6951 22.8436 20.6814 22.8203C20.6011 22.6801 20.5503 22.564 20.527 22.4658C20.4662 22.209 20.4508 21.9934 20.4625 21.5785C20.4679 21.3804 20.4833 21.1632 20.4991 20.9564C20.5149 20.7537 20.5378 20.5464 20.5615 20.3267C20.5774 20.1844 20.5927 20.0408 20.6086 19.8985C20.6136 19.8473 20.6185 19.8032 20.624 19.7645C20.6331 19.7649 20.6431 19.7649 20.6531 19.7649C20.7596 19.7661 20.8712 19.7295 20.9823 19.6534C21.1129 19.5622 21.1924 19.3966 21.2182 19.161C21.2399 18.96 21.1904 18.7965 21.0705 18.675C20.9968 18.6021 20.9144 18.5397 20.8262 18.4885C20.8391 18.4124 20.852 18.3408 20.8616 18.275C20.8745 18.1906 20.8882 18.1169 20.9024 18.0561C20.9115 18.0137 20.9198 17.9712 20.9286 17.9284C20.9357 17.8918 20.9419 17.8556 20.9498 17.8206C20.9519 17.8127 21.0975 17.1331 21.3889 16.1206C21.4359 15.9562 21.4579 15.8301 21.4692 15.724C21.4858 15.5688 21.448 15.3078 21.1558 15.2616ZM25.3345 18.829C25.3578 18.9234 25.3624 19.0395 25.3486 19.1831C25.3357 19.3171 25.3099 19.4669 25.2725 19.6296C25.2708 19.6359 25.0627 20.4516 24.9803 20.8423C24.915 21.1532 24.8746 21.3958 24.8276 21.6771C24.8268 21.683 24.8259 21.6892 24.8243 21.6955C24.7793 21.9701 24.7094 22.5802 24.6682 23.0109C24.5883 23.8428 24.5696 24.0409 24.3411 24.6818C24.1076 25.3373 23.5737 25.7717 23.3244 25.9112C22.8729 26.1633 22.3648 26.2944 21.8125 26.3057C21.8109 26.3057 21.8096 26.3057 21.8079 26.3057C21.8067 26.3057 21.805 26.3053 21.8038 26.3048C21.7776 26.3019 21.748 26.2998 21.7164 26.2978C21.6569 26.2936 21.5886 26.289 21.5233 26.2774C20.9432 26.1733 20.6081 25.805 20.6706 25.3281C20.7034 25.0788 20.8982 24.9269 21.1487 24.9644C21.3839 25.0035 21.6011 25.0227 21.7971 25.0206C22.3993 25.0139 22.8125 24.8146 23.0597 24.4001C23.3173 23.9685 23.3486 23.6847 23.3923 23.2918C23.3977 23.2411 23.4035 23.1886 23.4097 23.1337C23.4339 22.931 23.4522 22.7433 23.4717 22.5461C23.3744 22.6751 23.2795 22.7837 23.1875 22.8715C23.0015 23.0484 22.8309 23.1836 22.679 23.274C22.4971 23.3805 22.3194 23.4429 22.1509 23.4596C22.1492 23.4596 22.1471 23.46 22.1454 23.46C22.1434 23.4596 22.1413 23.4596 22.1396 23.4596C21.8625 23.4537 21.649 23.3468 21.5037 23.142C21.376 22.9647 21.2777 22.7409 21.2128 22.477C21.1496 22.2198 21.1163 21.9443 21.1142 21.6572C21.1113 21.3779 21.1213 21.1162 21.1442 20.879C21.2149 20.1428 21.3668 19.5556 21.5953 19.1369C21.8483 18.6704 22.1704 18.4344 22.5516 18.4432C22.572 18.4432 22.6011 18.4465 22.6552 18.4523C22.7239 18.4619 22.7838 18.4848 22.8367 18.5206C22.8949 18.558 22.942 18.6134 22.9807 18.69C23.0202 18.7694 23.0335 18.8681 23.0223 18.99C23.0102 19.114 22.9636 19.2501 22.8795 19.4058C22.8038 19.5497 22.7326 19.7129 22.6677 19.8897C22.6128 20.0412 22.557 20.2235 22.5017 20.4303C22.4463 20.6322 22.4072 20.8494 22.3856 21.0766C22.3818 21.1128 22.3756 21.1919 22.3689 21.3193C22.3618 21.4216 22.3627 21.5282 22.3718 21.6464C22.3797 21.7475 22.3993 21.834 22.4293 21.9035C22.4459 21.9443 22.4992 21.9722 22.5158 21.9755C22.5383 21.9805 22.5624 21.9855 22.5932 21.9855C22.6465 21.9855 22.7014 21.968 22.7559 21.9339C22.7976 21.9073 22.8991 21.8203 23.0185 21.6597C23.1022 21.5465 23.2628 21.3097 23.3952 20.9955C23.4572 20.849 23.5367 20.6093 23.6203 20.355C23.7148 20.0691 23.8804 19.5077 23.9757 19.2726C24.0373 19.1223 24.1047 18.9904 24.1825 18.8689C24.2529 18.7599 24.3682 18.6467 24.458 18.588C24.592 18.4994 24.7406 18.4532 24.9071 18.4615C24.945 18.4636 24.9853 18.4727 25.0382 18.486C25.1089 18.5043 25.1709 18.5426 25.2221 18.5988C25.2716 18.6517 25.3087 18.727 25.3345 18.829ZM25.6258 18.7083C25.6096 18.6413 25.5975 18.558 25.63 18.4461C25.6445 18.3961 25.6911 18.28 25.7186 18.1706C25.7511 18.0262 25.764 17.8822 25.729 17.7478C25.6982 17.6296 25.6907 17.4581 25.7236 17.3599C25.7739 17.2105 25.9121 17.131 26.0099 17.1144C26.1585 17.0894 26.3066 17.099 26.4319 17.1606C26.5688 17.228 26.6853 17.3911 26.7149 17.5093C26.7769 17.7586 26.749 17.9579 26.7199 18.1169C26.6858 18.3071 26.6067 18.4802 26.5218 18.6221C26.4614 18.7232 26.3603 18.8106 26.2738 18.8731C26.1672 18.9492 25.9924 18.9779 25.8089 18.9114C25.7248 18.8806 25.6412 18.7694 25.6258 18.7083ZM28.6825 22.2311C28.6384 22.5498 28.5085 22.8149 28.2975 23.0197C28.1007 23.2107 27.8714 23.363 27.6171 23.472C27.3662 23.5782 27.1082 23.6485 26.8501 23.681C26.6167 23.7093 26.4127 23.7155 26.245 23.6988C26.2292 23.6976 26.2138 23.6955 26.1997 23.6939C25.7935 23.6418 25.5168 23.5128 25.3553 23.2952C25.1946 23.0779 25.1297 22.8532 25.1614 22.626C25.1988 22.3563 25.3399 22.2252 25.4518 22.1636C25.5875 22.0875 25.7053 22.055 25.8114 22.0642C25.8151 22.0646 25.8193 22.065 25.8239 22.0663C25.93 22.0783 26.0528 22.1328 26.198 22.2319C26.2958 22.2997 26.4265 22.3447 26.5867 22.3659C26.8031 22.3938 26.9667 22.3821 27.0724 22.3297C27.1485 22.2935 27.1926 22.2531 27.1976 22.2161C27.2001 22.1994 27.2047 22.1653 27.1464 22.11C27.0753 22.0421 26.9779 21.976 26.8572 21.9148C26.7294 21.8503 26.5892 21.7833 26.4277 21.71C26.2617 21.6364 26.1081 21.5486 25.9704 21.4508C25.8214 21.3459 25.7007 21.2219 25.6112 21.0833C25.5093 20.9231 25.4731 20.7337 25.503 20.5202C25.5367 20.2759 25.6449 20.0242 25.8222 19.7724C25.9912 19.5331 26.2009 19.3159 26.4469 19.1282C26.6912 18.9421 26.9637 18.7944 27.2567 18.69C27.5597 18.5834 27.8606 18.5497 28.1502 18.593C28.429 18.6342 28.6442 18.7611 28.7886 18.9684C28.9326 19.1781 28.98 19.4669 28.9305 19.8261C28.906 19.9996 28.8435 20.1578 28.7432 20.298C28.6592 20.4149 28.4977 20.5485 28.2022 20.5015C28.0012 20.4715 27.9205 20.3629 27.8885 20.2764C27.8602 20.2056 27.8373 20.1282 27.8206 20.0483C27.809 19.9954 27.8061 19.9268 27.7715 19.891C27.7507 19.8727 27.7103 19.8589 27.66 19.8627C27.66 19.8627 27.6142 19.8602 27.5147 19.8889C27.4269 19.916 27.3391 19.9542 27.2551 20.0029C27.1677 20.0533 27.0882 20.1166 27.0195 20.1902C26.965 20.2489 26.9321 20.3105 26.9213 20.3729C26.9163 20.4033 26.9134 20.4553 26.9779 20.5173C27.0578 20.5931 27.1606 20.6692 27.285 20.7441C27.4099 20.8203 27.5534 20.8968 27.7237 20.978C27.903 21.0633 28.0649 21.1607 28.2039 21.2676C28.3525 21.3804 28.4748 21.5119 28.5676 21.6563C28.6737 21.8224 28.7129 22.0159 28.6825 22.2311ZM11.1796 20.8968C11.0415 21.1108 10.9033 21.2776 10.7564 21.4058C10.5924 21.5494 10.4701 21.6268 10.3136 21.7129C10.2453 21.7504 10.1892 21.7716 10.1417 21.7845C10.165 21.6563 10.2083 21.4845 10.2682 21.3417C10.3565 21.1299 10.4701 20.921 10.6053 20.7208C10.7651 20.4849 10.8945 20.33 11.0265 20.2193C11.118 20.1419 11.1983 20.0957 11.2587 20.0858C11.3931 20.0624 11.3998 20.2364 11.3993 20.2709C11.3985 20.4803 11.2803 20.7387 11.1796 20.8968ZM12.0698 19.139C11.9616 19.0649 11.8396 19.0221 11.7081 19.0116C11.5958 19.0042 11.458 19.01 11.3565 19.0266C11.354 19.0266 11.3515 19.027 11.349 19.0275C11.1305 19.0645 10.9016 19.1415 10.7397 19.2314C10.5737 19.3217 10.4118 19.4378 10.2582 19.5776C10.1288 19.6958 9.97983 19.839 9.85248 20.0092C9.76925 20.1195 9.61152 20.3421 9.48293 20.5901C9.30981 20.9239 9.15916 21.3122 9.02266 21.7754C8.93735 21.7754 8.7509 21.7375 8.66559 21.7208C8.60525 21.7088 8.58444 21.705 8.57154 21.7042C8.55781 21.7042 8.54657 21.7038 8.53533 21.7034C8.93027 20.0604 9.20577 19.1298 9.40719 18.4852C9.51664 18.1706 9.62609 17.856 9.73512 17.5414C9.82085 17.3632 9.87287 17.1194 9.86455 17.0066C9.84208 16.677 9.61485 16.3441 9.21035 16.4335C8.78128 16.5284 8.52868 17.0748 8.18742 18.2788C7.89986 19.2921 7.73672 19.938 7.50326 21.0329C7.40213 21.5319 7.301 22.0309 7.20112 22.5299C7.18573 22.6048 7.17074 22.6801 7.15618 22.7546C7.12205 22.9102 7.10416 22.9548 7.04923 22.9672C7.02176 22.9735 6.98722 22.9543 6.9714 22.8907C6.93561 22.7513 6.90565 22.4624 6.88443 22.0921C6.85738 21.2389 6.78621 20.355 6.81701 19.2364C6.8349 18.5972 6.83407 18.4944 6.79204 18.3308C6.7113 18.0141 6.31886 17.826 5.89147 17.9342C5.46365 18.0428 5.33797 18.5231 5.09119 19.1781C4.92473 19.6217 4.67212 20.4104 4.42117 21.1757C4.18604 21.968 3.9093 22.9385 3.9093 22.9385C3.89182 23.0059 3.87517 23.0729 3.85769 23.1399C3.84063 23.2069 3.82357 23.274 3.8065 23.3414C3.74533 23.5053 3.7241 23.5378 3.68332 23.5494C3.6417 23.5607 3.6184 23.527 3.60591 23.477C3.58011 23.3776 3.58427 22.7417 3.59218 22.4063C3.60799 21.7229 3.67458 20.9809 3.73825 20.3171C3.77488 19.8381 3.89764 19.0004 3.93468 18.5214C3.94758 18.377 3.96048 18.2251 3.96381 18.1223C3.97172 17.8173 3.95091 17.67 3.81774 17.5189C3.60924 17.3354 3.35497 17.3495 3.06158 17.4161C2.58924 17.5235 2.2355 17.816 2.27753 17.9767C2.28419 18.0008 2.30874 18.0241 2.33288 18.0595C2.40446 18.1631 2.44191 18.2214 2.47063 18.3262C2.50475 18.4498 2.52098 18.6209 2.52015 18.8968C2.50975 19.1436 2.49934 19.3912 2.48894 19.6388C2.42943 20.3854 2.33954 21.7304 2.3154 22.6505C2.29418 23.445 2.32123 23.9964 2.38365 24.7821C2.41528 25.177 2.49893 25.4996 2.54387 25.6731C2.62378 25.9836 2.7815 26.3286 3.0545 26.3976C3.25717 26.4488 3.41365 26.4368 3.68041 26.3668C3.92553 26.3032 4.29674 26.0689 4.37872 25.6997C4.48276 25.2886 4.58764 24.8774 4.69209 24.4662C4.78531 24.0272 4.99631 23.2494 5.17609 22.5744C5.27971 22.1728 5.41455 21.7233 5.48696 21.4903C5.53024 21.3725 5.55146 21.3405 5.57893 21.3334C5.60681 21.3263 5.62346 21.3355 5.6297 21.3609C5.63303 21.3738 5.63678 21.3925 5.63803 21.4358C5.63927 21.4637 5.64011 21.4911 5.64094 21.519C5.64302 21.6031 5.6451 21.6876 5.64676 21.772C5.66716 22.5977 5.8253 24.0185 5.97387 24.5998C6.07083 24.9798 6.0983 25.4492 6.68425 25.5354C6.95476 25.5761 7.1799 25.4996 7.1799 25.4996C7.61187 25.3681 7.72382 25.1192 7.82079 24.6943C7.88404 24.4255 8.07922 23.6847 8.18618 23.2078C8.21864 23.063 8.25026 22.9235 8.28148 22.787C8.36055 22.8124 8.72052 22.8686 8.87076 22.8815C8.87242 22.9269 8.8745 22.9506 8.8795 22.9797C8.88324 23.0076 8.88699 23.0322 8.89032 23.0559C8.89573 23.0925 8.89989 23.1258 8.9078 23.1624C8.9182 23.2107 8.92861 23.2586 8.93901 23.306C9.00143 23.5557 9.09881 23.7683 9.22741 23.9386C9.35184 24.1046 9.48085 24.2174 9.65938 24.3152C9.82876 24.4076 10.1188 24.4479 10.3939 24.4196C10.433 24.4184 10.4688 24.4155 10.5063 24.4084C10.5138 24.4076 10.5208 24.4063 10.5279 24.4042C10.5466 24.4009 10.5649 24.3972 10.5841 24.3934C10.5841 24.393 10.5845 24.3922 10.5845 24.3909C10.6253 24.3818 10.6752 24.3697 10.7135 24.3585C11.1455 24.2344 11.7015 23.8507 11.9017 23.2885C11.9799 23.0671 11.9362 22.9285 11.8858 22.8511C11.8309 22.7671 11.7402 22.7159 11.6482 22.7175C11.617 22.7184 11.5866 22.7213 11.5571 22.7263C11.369 22.7562 11.2266 22.8628 11.1014 22.9568C10.9882 23.0417 10.8812 23.1221 10.7481 23.1479C10.5962 23.177 10.4925 23.1732 10.4047 23.13C10.3069 23.0817 10.2736 23.0459 10.2341 22.946C10.2104 22.8865 10.1975 22.8187 10.1862 22.73C10.4314 22.6672 10.7152 22.5423 10.9432 22.3942C11.2042 22.2248 11.4422 22.0176 11.6503 21.7787C11.8571 21.5398 12.0302 21.2756 12.1651 20.9917C12.2937 20.7204 12.3873 20.3608 12.4094 20.0525C12.4268 19.8161 12.4015 19.6205 12.3353 19.4707C12.267 19.3234 12.1776 19.2114 12.0698 19.139Z" fill="#BF002E"/>
<path d="M9.43153 12.8953C9.54264 12.9531 9.66791 12.971 9.63378 12.9927C9.57219 13.0309 9.35579 12.9922 9.25341 12.9281C9.20888 12.9003 9.19224 12.9648 9.2326 13.0168C9.2326 13.0168 9.2326 13.0168 9.23219 13.0164C9.24759 13.0405 9.26631 13.0617 9.30335 13.0963C9.69745 13.4409 10.2056 13.5441 10.6642 13.465C10.8981 13.8295 11.1769 14.1729 11.5011 14.4875C12.5819 15.5354 14.006 16.1122 15.5108 16.1122C17.0822 16.1122 18.55 15.4913 19.6437 14.3639C19.9154 14.0834 20.1556 13.7804 20.362 13.4592C20.8268 13.5461 21.3462 13.4454 21.7474 13.0946C21.7844 13.0601 21.8027 13.0388 21.8181 13.0147V13.0151C21.8585 12.9627 21.8418 12.8986 21.7969 12.9265C21.6945 12.9906 21.4781 13.0293 21.4169 12.991C21.3828 12.9693 21.5077 12.9515 21.6188 12.8936C22.2176 12.5919 22.1094 11.6406 21.9321 11.8391C21.804 11.9997 21.6363 12.1691 21.3154 12.1587C21.6063 11.8203 21.635 11.3442 21.5343 11.4287C21.4402 11.5261 21.3142 11.7296 21.0595 11.9011C21.2051 11.3759 21.2767 10.8265 21.268 10.2664C21.2447 8.72785 20.6237 7.29127 19.5197 6.22049C19.1472 5.85968 18.7344 5.55464 18.2916 5.30952C18.0498 4.86922 17.7456 4.55003 17.1996 4.42601C16.9436 4.39064 16.8146 4.39439 16.6049 4.48594C16.5812 4.40021 16.545 4.34237 16.5079 4.30408C16.2778 4.07644 15.8608 4.04939 15.6565 4.01443C15.4159 3.99113 14.9956 3.98447 14.5952 4.08601C13.7217 4.30741 13.1258 4.73148 12.6942 5.327C12.2152 5.59667 11.7716 5.93709 11.3767 6.34409C9.90762 7.8585 9.43985 9.97966 9.96005 11.8815C9.72575 11.715 9.60632 11.524 9.51642 11.4304C9.41571 11.3459 9.44443 11.8216 9.73533 12.1603C9.41447 12.1707 9.24634 12.0018 9.11816 11.8407C8.94088 11.6418 8.83309 12.5936 9.43153 12.8953Z" fill="white"/>
<path d="M28.8645 23.5923H28.897C28.9344 23.5923 28.9648 23.5798 28.9648 23.5494C28.9648 23.5223 28.9453 23.5044 28.9024 23.5044C28.8841 23.5044 28.8712 23.5061 28.8645 23.5082V23.5923ZM28.8629 23.7575H28.7946V23.4632C28.8212 23.4599 28.8591 23.4541 28.9074 23.4541C28.9632 23.4541 28.9877 23.4632 29.0077 23.4778C29.0256 23.4903 29.0381 23.5115 29.0381 23.5402C29.0381 23.576 29.0114 23.5993 28.9773 23.6102V23.6139C29.006 23.6226 29.0202 23.6459 29.0293 23.6855C29.0381 23.7304 29.0451 23.7462 29.051 23.7575H28.979C28.9702 23.7462 28.9648 23.7213 28.9557 23.6855C28.9503 23.6551 28.9324 23.6405 28.8949 23.6405H28.8629V23.7575ZM28.9074 23.37C28.7805 23.37 28.6814 23.4757 28.6814 23.6047C28.6814 23.7354 28.7805 23.8395 28.9107 23.8395C29.0381 23.8415 29.135 23.7354 29.135 23.6064C29.135 23.4757 29.0381 23.37 28.9095 23.37H28.9074ZM28.9107 23.3109C29.0776 23.3109 29.2104 23.4399 29.2104 23.6047C29.2104 23.77 29.0776 23.9006 28.9095 23.9006C28.7405 23.9006 28.6065 23.77 28.6065 23.6047C28.6065 23.4399 28.7405 23.3109 28.9095 23.3109H28.9107Z" fill="#000714"/>
<path d="M15.5104 5.05037C14.0634 5.05037 12.7113 5.62259 11.7038 6.66133C9.6679 8.76002 9.71909 12.1238 11.8182 14.1605C12.8137 15.1256 14.125 15.657 15.5112 15.657C16.9582 15.657 18.3099 15.0852 19.317 14.0469C20.3033 13.0302 20.8343 11.6898 20.8127 10.2732C20.7914 8.85657 20.2196 7.5336 19.2025 6.54772C18.2075 5.58223 16.8962 5.05037 15.5104 5.05037ZM15.5112 16.1123C14.006 16.1123 12.5819 15.5351 11.5011 14.4872C9.22178 12.2757 9.16601 8.62269 11.3771 6.34421C12.4712 5.21642 13.939 4.5951 15.5104 4.5951C17.0152 4.5951 18.4389 5.17231 19.5197 6.22061C20.6237 7.29139 21.2446 8.72797 21.2679 10.2661C21.2917 11.8046 20.7149 13.2599 19.6437 14.364C18.55 15.4914 17.0826 16.1123 15.5112 16.1123Z" fill="#401E00"/>
<path fill-rule="evenodd" clip-rule="evenodd" d="M21.7968 12.9264C21.6949 12.9905 21.4785 13.0292 21.4169 12.9909C21.3827 12.9693 21.5076 12.9514 21.6191 12.8936C22.2176 12.5914 22.1098 11.6405 21.9325 11.839C21.8043 11.9997 21.6362 12.169 21.3153 12.1586C21.6062 11.8199 21.6349 11.3442 21.5342 11.4287C21.3253 11.6455 20.9603 12.3871 19.3644 12.1303C19.4085 12.0742 19.4559 12.0196 19.5079 11.9684C19.4264 11.9198 19.3444 11.8423 19.2607 11.7188C19.0169 11.3338 18.8088 11.2685 18.6839 11.2339C18.8879 11.0379 19.0248 10.8311 19.1484 10.5972C19.5616 9.71411 19.5138 8.75361 19.4688 8.50059C19.421 8.1094 19.3211 7.49889 19.014 6.92834C18.666 6.27955 18.326 5.09474 17.1558 4.69689C16.9178 4.68482 16.7925 4.69731 16.5836 4.78886C16.5632 4.74766 16.3655 4.58495 16.3443 4.54791C16.2203 4.43554 15.8557 4.33608 15.6926 4.28198C15.3567 4.27616 15.0609 4.19251 14.6901 4.2928C13.1207 4.71687 12.4207 5.50091 11.9567 6.94249C11.9184 7.06193 11.8643 7.45145 11.8581 7.57006C11.8722 7.52969 11.3479 9.12067 11.6962 9.99294C11.7603 10.0662 11.7661 10.206 11.8314 10.2784C11.9962 10.6642 12.2605 10.9014 12.4191 11.2551C11.9043 11.2764 11.7237 12.0625 11.7087 12.1287C10.0936 12.3958 9.72651 11.648 9.51635 11.4304C9.41605 11.3459 9.44435 11.8215 9.73525 12.1603C9.41439 12.1707 9.24626 12.0013 9.1185 11.8407C8.9408 11.6418 8.83301 12.5935 9.43145 12.8952C9.54298 12.9527 9.66783 12.971 9.63371 12.9922C9.57211 13.0309 9.35571 12.9922 9.25375 12.9281C9.20589 12.8981 9.18925 12.9739 9.24127 13.0276C10.7823 14.0509 11.4919 12.9252 11.7266 12.8927C12.5764 13.137 14.0829 12.5369 13.4145 12.0192C13.2327 11.735 12.9584 11.2472 12.948 10.685C12.9106 10.3691 12.9472 10.2713 12.6001 10.3005C12.7233 9.91678 12.8498 9.58052 12.722 8.99748C12.6991 9.00539 12.6754 9.02662 12.6579 9.04326C13.3425 8.37491 14.693 8.29542 15.4316 7.56506C15.5274 7.3986 15.9057 7.34325 15.9964 7.17013C15.9123 7.77065 15.6447 8.29917 15.0883 8.82977C15.0883 8.82977 15.4795 8.83102 15.7904 8.60921C16.3206 8.23092 16.569 7.77106 16.9348 7.37405C16.9369 7.35449 17.0376 7.2646 17.0334 7.24004C17.0938 7.27042 17.2103 7.36697 17.249 7.42732C17.6814 8.09567 17.3302 7.93212 17.8083 8.53971C17.8362 8.57175 17.8878 8.71033 17.9149 8.74404C18.0189 8.93964 18.0684 9.06074 18.2012 9.24135C18.3731 9.35954 18.3389 9.55972 18.4397 9.90055C18.4097 10.3238 18.3231 10.6538 18.041 10.8419C18.0256 11.2106 17.7143 12.0662 17.7143 12.0662C17.7422 12.1507 17.3876 12.7167 18.2249 12.8873C18.4446 12.9319 18.7767 12.8877 19.0589 12.8378C19.0818 12.6559 19.143 12.4832 19.2341 12.3234C19.2274 12.375 19.2225 12.4271 19.2225 12.4803C19.2225 12.626 19.2495 12.7662 19.2986 12.8977C19.3073 12.8952 19.3157 12.8936 19.324 12.8911C19.5587 12.9235 20.2687 14.0492 21.8093 13.0259C21.8613 12.9722 21.8447 12.8965 21.7968 12.9264Z" fill="#BF002E"/>
<path d="M17.4074 14.1395C17.3434 13.9913 17.3005 13.8915 17.303 13.7608C17.2947 13.7396 17.2714 13.7208 17.241 13.7063L17.2435 13.8586L16.9742 13.7483C16.9484 13.7845 16.9343 13.8369 16.943 13.911C17.0308 14.4291 17.2739 14.6963 17.3363 14.7617C17.4012 14.8295 17.452 14.8357 17.5086 14.8399C17.5789 14.8457 17.6272 14.8241 17.6705 14.7766C17.7674 14.6335 17.5252 14.4104 17.4074 14.1395Z" fill="#9ABAF7"/>
<path d="M14.6257 14.3108L14.48 14.1422C14.3793 14.7648 14.1491 14.9296 14.2216 15.0877C14.2444 15.1373 14.2973 15.1789 14.2973 15.1789C14.3335 15.2014 14.3672 15.2118 14.3993 15.213C14.45 15.2126 14.5029 15.2009 14.5428 15.1543C14.7139 14.9446 14.8329 14.5942 14.8704 14.3678C14.8783 14.3195 14.8787 14.2708 14.8733 14.2238L14.6257 14.3108Z" fill="#9ABAF7"/>
<path d="M14.1248 14.0136L13.8863 13.957L13.8572 13.8114C13.8393 13.8318 13.8227 13.8551 13.8093 13.8817C13.7848 13.9766 13.7644 14.064 13.6708 14.2708C13.5671 14.501 13.2629 14.7427 13.573 14.8343C13.6724 14.8589 13.7328 14.8193 13.7731 14.7831C13.9596 14.615 14.1298 14.2321 14.2051 14.0011C14.2184 13.9587 14.2276 13.9154 14.2338 13.8705L14.1248 14.0136Z" fill="#9ABAF7"/>
<path d="M16.5519 14.3194L16.2698 14.17C16.3547 14.6644 16.5336 15.0136 16.6335 15.1401C16.673 15.1859 16.7263 15.215 16.7866 15.2254C16.8266 15.2271 16.8549 15.2221 16.8894 15.2042C16.8894 15.2042 16.9648 15.1696 16.9831 15.1185C17.0405 14.9582 16.7729 14.6927 16.7042 14.0905L16.5519 14.3194Z" fill="#9ABAF7"/>
<path d="M15.4258 15.2842C15.7221 15.3587 15.9864 15.1306 15.9918 15.0528C15.9955 14.9916 15.8419 14.7453 15.7849 14.6912C15.7504 14.6575 15.6268 14.5717 15.4632 14.6279C15.3729 14.6583 15.1969 14.8381 15.2002 15.0054C15.2023 15.1423 15.4258 15.2842 15.4258 15.2842Z" fill="#9ABAF7"/>
<path fill-rule="evenodd" clip-rule="evenodd" d="M13.4013 7.85857C14.2416 7.6068 14.592 6.94219 15.3814 6.39328C15.2503 6.41075 15.0889 6.48442 14.9786 6.54726C14.3123 6.92929 14.1022 7.09492 13.7917 7.30883C13.4792 7.5244 13.0763 7.78117 12.7846 7.88271C12.7846 7.88271 12.9931 7.99674 13.4013 7.85857ZM17.2001 4.42609C16.9441 4.39072 16.8147 4.39446 16.6054 4.48602C16.5816 4.40029 16.5454 4.34244 16.5084 4.30416C16.2778 4.0761 15.8613 4.04905 15.6569 4.01451C15.416 3.9912 14.9961 3.98455 14.5953 4.08609C13.0722 4.47229 12.3926 5.47273 11.9585 6.92929C11.8707 7.22393 11.7854 7.64758 11.7342 8.04709C11.5457 8.48031 11.1878 9.60186 11.9223 10.6889C12.0542 10.8845 12.49 11.4276 12.6032 11.7251C12.7605 12.443 11.8561 12.0139 11.2211 12.6581C11.2211 12.6581 10.6984 13.3365 9.68503 13.1983C9.51233 13.1692 9.35668 13.118 9.23267 13.0165C9.24806 13.0406 9.26679 13.0618 9.30383 13.0964C9.9468 13.6586 10.8931 13.5783 11.4317 13.113C11.5498 13.0115 11.5532 12.947 11.9564 12.9465C12.6585 12.9457 13.2898 12.8949 13.6565 12.3593C13.3714 11.9873 13.2428 11.8566 13.1321 11.6269C13.1321 11.5108 13.0963 11.3601 13.0052 11.1658C12.9465 10.4408 12.8707 10.346 12.8828 9.98265C12.8541 9.51822 12.8753 8.98303 13.3564 8.78453C13.8404 8.58519 13.9694 8.64719 14.7934 8.21938C16.3149 7.43034 16.3519 6.46277 16.195 6.34167C16.195 6.34167 15.8409 6.96217 15.3902 7.35335C14.7164 7.93806 13.8595 8.15654 12.954 8.49863C12.0442 8.84237 11.9348 9.19028 11.9348 9.19028C11.7055 7.88562 12.4804 7.12988 12.4804 7.12988C12.4026 7.10324 12.0122 7.57059 11.8387 7.83901C12.0326 6.98963 12.2469 6.47401 12.4625 6.04994C12.5191 5.9459 12.6477 5.74948 12.763 5.60257C13.0052 5.32999 13.1105 5.21679 13.4733 4.97417C13.701 4.82186 13.9523 4.67912 14.2628 4.59713C14.9403 4.41777 15.9553 4.43233 16.3586 4.77234C16.468 4.86556 16.518 5.01371 16.518 5.01371C16.518 5.01371 16.7127 4.90051 16.8509 4.8589C17.0473 4.7998 17.2783 4.85806 17.424 4.91716C18.2234 5.27173 18.4098 6.1723 19.0141 6.92846C18.4177 5.70869 18.295 4.67454 17.2001 4.42609ZM18.3158 7.25306C18.6604 7.70501 19.5031 8.49446 19.4199 9.73836C19.4199 9.73836 19.5272 9.42333 19.5139 9.01217C19.4598 7.17774 18.4277 7.10699 17.6445 5.5955C17.6445 5.5955 17.5267 6.21641 18.3158 7.25306ZM21.8186 13.0148C21.8028 13.0389 21.7845 13.0601 21.7474 13.0947C21.1049 13.6573 20.1581 13.5766 19.6196 13.1109C19.5297 13.0339 19.506 12.9782 19.3221 12.9557C19.258 12.8075 19.2226 12.6473 19.2226 12.4804C19.2226 12.4268 19.2272 12.3743 19.2347 12.3219C19.161 12.4509 19.1073 12.5882 19.0774 12.7314C19.0553 12.7326 19.0332 12.7668 19.0099 12.7734C18.2417 13.071 17.7769 12.8712 17.4731 12.2682C17.5001 12.2291 17.6612 12.0202 17.682 11.9806C17.7436 11.8458 17.9317 11.4409 17.9824 10.892C18.0694 10.1612 18.0661 9.99305 18.0927 9.8141C18.1331 9.46536 18.1318 9.37589 18.0574 9.12703C17.992 8.92186 17.9379 8.85111 17.8156 8.61848C17.5113 8.17777 17.3957 7.98966 17.2517 7.70917C17.1485 7.50817 17.1172 7.41079 17.0856 7.29593C17.0856 7.29593 16.8072 7.97385 16.2333 8.39958C15.7427 8.76372 15.3656 8.88108 15.0885 8.82989C15.5125 8.59018 15.9499 8.32758 16.272 7.80031C16.7236 7.06204 16.8085 6.31795 16.8085 6.31795C16.8085 6.31795 16.838 6.31587 16.9296 6.36664C16.9982 6.40534 17.1247 6.53519 17.188 6.76657C17.2117 6.85438 17.3078 7.17357 17.4244 7.43742C17.6349 7.91267 17.8347 8.1399 18.2613 8.53358C18.6766 8.91728 19.0815 9.46079 18.9288 10.2602C18.8401 10.7255 18.6317 11.0147 18.4015 11.4067C18.3262 11.557 18.3012 11.6693 18.3204 11.8321C18.384 12.2599 18.8081 12.0277 19.3416 12.1587C19.3042 12.2083 19.2705 12.2599 19.2401 12.3123C19.4378 12.3727 19.645 12.4692 19.8298 12.6565C19.8298 12.6565 20.3529 13.3348 21.3662 13.1971C21.539 13.1675 21.6946 13.1159 21.8186 13.0148Z" fill="#910023"/>
<path fill-rule="evenodd" clip-rule="evenodd" d="M18.2873 9.23914C18.1932 9.2175 18.1545 9.26578 18.1108 9.3565C18.1017 9.28783 18.0846 9.21792 18.0571 9.1272C17.9922 8.92203 17.9377 8.85128 17.8158 8.61865C17.5111 8.17794 17.3959 7.98983 17.2515 7.70934C17.1482 7.50834 17.117 7.41096 17.0854 7.2961C17.0854 7.2961 16.8074 7.97402 16.2331 8.39975C15.7425 8.76389 15.3658 8.88125 15.0883 8.83006C15.6159 8.32651 15.8835 7.82503 15.9818 7.26239C15.7645 7.56702 15.3954 7.90743 14.7932 8.21955C13.9692 8.64736 13.8402 8.58536 13.3566 8.7847C13.0137 8.92578 12.9047 9.23831 12.8805 9.57373C12.8759 9.52088 12.8705 9.47261 12.8651 9.43307C12.856 9.24164 12.8035 9.24497 12.8035 9.24497C12.8035 9.24497 12.4989 9.24913 12.4789 9.69983C12.4731 9.97783 12.5222 10.0565 12.563 10.1514C12.6088 10.2579 12.6612 10.3923 12.729 10.4256C12.8451 10.481 12.8963 10.4431 12.9151 10.4198C12.9171 10.4327 12.9196 10.4456 12.9217 10.4585C12.9238 10.4714 12.9263 10.4847 12.928 10.4993C12.9309 10.5184 12.9338 10.5388 12.9375 10.5604C13.0328 11.1693 13.1227 11.5359 13.2784 11.7681C13.2904 11.7981 13.3038 11.8293 13.3179 11.8609C13.3516 11.9188 13.3845 11.9721 13.4145 12.0195C13.516 12.0982 13.5672 12.1789 13.578 12.258C13.5843 12.2659 13.5909 12.2742 13.5972 12.2825C13.6163 12.3071 13.6359 12.332 13.6567 12.3591C13.6546 12.3616 13.6529 12.3641 13.6513 12.3666C13.6666 12.3807 13.682 12.3953 13.6983 12.4082C13.7603 12.4773 13.8248 12.5347 13.8839 12.583L13.8477 13.7636L13.8868 13.9571L14.1248 14.0137L14.2393 13.8639L14.6255 14.3109L14.9605 14.1935C14.9605 14.1935 15.0416 14.2264 15.1099 14.2867C15.1781 14.3467 15.6001 14.5339 15.6001 14.5339L15.7953 14.4578L16.0429 14.2722L16.1432 14.1028L16.5519 14.3196L16.9406 13.7345L17.2435 13.8589L17.2227 12.5222C17.261 12.4814 17.2977 12.4407 17.3322 12.4007C17.4483 12.2667 17.5836 12.1248 17.6855 11.9733C17.6888 11.965 17.6934 11.9558 17.6976 11.9458C17.6988 11.9438 17.7001 11.9408 17.7009 11.9388C17.7047 11.9304 17.7088 11.9217 17.713 11.9121C17.7151 11.9071 17.7176 11.9017 17.7196 11.8963C17.723 11.8884 17.7267 11.8809 17.73 11.8726C17.7334 11.8651 17.7367 11.8568 17.74 11.8489C17.7434 11.8414 17.7463 11.8343 17.7496 11.8264C17.7533 11.8172 17.7575 11.8073 17.7613 11.7973C17.7642 11.7898 17.7671 11.7827 17.7704 11.7748C17.7746 11.764 17.7791 11.7519 17.7833 11.7403C17.7862 11.7328 17.7891 11.7257 17.792 11.7178C17.7966 11.7053 17.8016 11.692 17.8062 11.6783C17.8091 11.6708 17.812 11.6637 17.8145 11.6558C17.8195 11.6416 17.8245 11.6266 17.8295 11.6117C17.832 11.6038 17.8345 11.5963 17.8374 11.5884C17.8424 11.573 17.8474 11.5571 17.852 11.5413C17.8549 11.533 17.8574 11.5247 17.8599 11.5164C17.8649 11.4997 17.8699 11.4827 17.8744 11.4652C17.8769 11.4564 17.8794 11.4481 17.8819 11.4394C17.8865 11.4223 17.8911 11.404 17.8961 11.3861C17.8986 11.377 17.9007 11.3678 17.9032 11.3578C17.9077 11.3399 17.9119 11.3212 17.9161 11.3029C17.9186 11.2925 17.9206 11.2829 17.9231 11.2725C17.9273 11.2538 17.931 11.2342 17.9348 11.2151C17.9369 11.2042 17.9394 11.1938 17.9415 11.183C17.9452 11.163 17.9485 11.1427 17.9519 11.1223C17.9539 11.111 17.9556 11.1006 17.9577 11.0894C17.961 11.0673 17.9643 11.044 17.9673 11.0211C17.9685 11.0116 17.9702 11.0024 17.9714 10.9924C17.9752 10.9595 17.9789 10.9263 17.9822 10.8921C18.0051 10.6986 18.0218 10.5446 18.0347 10.4194C18.0671 10.441 18.1433 10.4693 18.2436 10.3649C18.368 10.2629 18.4741 9.96243 18.4696 9.71814C18.465 9.50382 18.413 9.26827 18.2873 9.23914Z" fill="#FFF1F0"/>
<path d="M11.9373 11.9055C11.9368 11.8439 11.9302 11.7544 11.9006 11.6487C11.8694 11.4923 11.8378 11.3866 11.7741 11.1123C11.6984 10.786 11.489 10.7748 11.4116 10.7802C11.3513 10.7848 11.04 10.8664 10.8311 11.0403C10.613 11.2064 10.6097 11.3275 10.6372 11.4136C10.6588 11.4819 10.7641 11.6729 10.8452 11.7761C11.0771 12.0603 11.4241 12.1319 11.2797 12.233C11.2377 12.2788 11.2489 12.357 11.2984 12.5339C11.3384 12.6434 11.3771 12.7399 11.4162 12.8019C11.4541 12.8539 11.4882 12.9571 11.6364 12.9709C11.6734 12.9746 11.7184 12.9717 11.7084 12.9954C11.6892 13.0387 11.678 13.0953 11.6801 13.1419C11.6826 13.2027 11.7658 13.392 11.8028 13.4857C11.8453 13.5943 11.9468 14.0779 12.1728 14.0737C12.2756 14.0725 12.3776 14.0467 12.4658 14.0179C12.6755 13.9559 12.9381 13.782 12.9706 13.6442C13.0176 13.4482 12.8919 13.3671 12.8274 13.2755C12.7038 13.1465 12.4296 12.8789 12.3509 12.7953C12.3326 12.7757 12.3097 12.7566 12.2823 12.7295C12.2057 12.6534 12.2444 12.6317 12.2789 12.5818C12.3205 12.496 12.1986 12.2543 12.1678 12.2064C12.117 12.129 12.0326 12.0391 11.9568 12.0379C11.7983 12.0121 11.9364 11.9996 11.9373 11.9055Z" fill="#9ABAF7"/>
<path d="M11.8296 12.8425C12.0398 12.7564 12.034 12.7535 12.1114 12.6915C12.1355 12.6719 12.1971 12.7044 12.1405 12.7997C12.1164 12.8384 12.0789 12.8201 12.0868 12.9062C12.0972 13.0169 12.3319 13.185 12.1738 13.2171C12.0302 13.2458 11.9478 12.9799 11.9366 12.9416C11.9245 12.9041 11.8613 12.9449 11.8296 12.942C11.7618 12.9353 11.7065 12.8933 11.8296 12.8425Z" fill="#401E00"/>
<path d="M11.3761 11.7517C11.3961 11.9019 11.5143 12.0726 11.6121 11.9781C11.6741 11.9182 11.5555 11.9019 11.4722 11.554C11.4185 11.3281 11.3607 11.6356 11.3761 11.7517Z" fill="#401E00"/>
<path fill-rule="evenodd" clip-rule="evenodd" d="M11.7165 12.0942C11.6204 12.1042 11.5051 12.1121 11.4547 12.1762C11.4052 12.2403 11.3977 12.257 11.4327 12.319C11.4676 12.3814 11.4847 12.3298 11.5404 12.2794C11.5962 12.2291 11.664 12.2008 11.7098 12.1941C11.7606 12.1866 11.8226 12.16 11.8405 12.1046C11.8538 12.0618 11.8068 12.0851 11.7165 12.0942Z" fill="white"/>
<path d="M19.4046 12.8449C19.4853 12.8445 19.5977 12.7267 19.6485 12.6506C19.6801 12.6027 19.8204 12.3601 19.7388 12.2823C19.6947 12.2382 19.6834 12.2249 19.7509 12.1603C19.7792 12.1337 19.8025 12.1146 19.8216 12.095C19.9032 12.0122 20.2536 11.6314 20.3364 11.5415C20.3809 11.4812 20.5249 11.368 20.4625 11.2069C20.4146 11.0975 20.0713 10.9152 19.8899 10.8461C19.7883 10.8037 19.6747 10.767 19.5956 10.7612C19.4171 10.74 19.2735 11.2623 19.2327 11.3692C19.1974 11.4612 19.1483 11.6747 19.1491 11.735C19.1491 11.78 19.1641 11.8353 19.1861 11.8774C19.1994 11.9007 19.1503 11.8986 19.11 11.9023C18.9493 11.9173 18.8698 12.0234 18.8395 12.0613C18.8008 12.0971 18.7492 12.1986 18.7121 12.3064C18.668 12.48 18.6817 12.5511 18.7292 12.5952C18.8927 12.693 18.5448 12.7351 18.298 13.0626C18.209 13.1633 18.0854 13.3456 18.065 13.4134C18.0388 13.4975 18.0175 13.5936 18.2826 13.7734C18.4816 13.9299 18.8619 14.0181 18.9285 14.0222C19.0126 14.0272 19.1899 14.0734 19.2556 13.753C19.3101 13.4842 19.3297 13.4034 19.3543 13.2831C19.3792 13.1383 19.3938 13.0239 19.3809 12.981C19.3738 12.9032 19.2411 12.8537 19.4046 12.8449Z" fill="#9ABAF7"/>
<path d="M19.1827 12.8076C18.9443 12.7922 18.9518 12.7697 18.8723 12.7164C18.8465 12.6998 18.7428 12.7514 18.8169 12.8176C18.8423 12.8396 18.8981 12.9054 18.8769 12.9853C18.8486 13.0889 18.6967 13.2862 18.8452 13.2666C19.0142 13.2454 19.0533 13.0065 19.072 12.9711C19.0912 12.9353 19.1199 12.9212 19.1569 12.9162C19.2281 12.9074 19.3038 12.8151 19.1827 12.8076Z" fill="#401E00"/>
<path d="M19.6683 11.8103C19.6208 11.9135 19.5854 12.0529 19.4477 11.9797C19.2746 11.8877 19.491 11.7491 19.6233 11.6089C19.7477 11.4782 19.7053 11.7292 19.6683 11.8103Z" fill="#401E00"/>
<path fill-rule="evenodd" clip-rule="evenodd" d="M19.4787 12.1239C19.3971 12.0544 19.3147 11.9799 19.2311 11.9824C19.147 11.9853 19.1149 11.9982 19.0979 12.0673C19.0808 12.136 19.1308 12.116 19.209 12.1268C19.2872 12.1376 19.3721 12.1934 19.4125 12.225C19.4566 12.2608 19.5411 12.287 19.5636 12.2491C19.5856 12.2117 19.5552 12.1896 19.4787 12.1239Z" fill="white"/>
<path fill-rule="evenodd" clip-rule="evenodd" d="M14.7946 12.0426C14.7946 12.0426 14.6772 11.7534 14.5565 11.7613C14.7688 11.7597 15.0472 11.8038 15.2573 11.7879C15.2906 11.7863 15.3576 11.7592 15.3905 11.7563C15.718 11.7226 16.1042 11.8162 16.4055 11.7264C16.3023 11.8242 16.2395 12.0597 16.0909 12.1338C15.9315 12.2137 15.5628 12.2366 15.3327 12.2233C15.1004 12.2099 14.9573 12.1284 14.7946 12.0426Z" fill="white"/>
<path d="M13.4357 10.4921C13.4357 10.4567 13.459 10.4305 13.5014 10.4305C13.536 10.4313 13.5826 10.4571 13.5817 10.4929C13.5834 10.5387 13.5351 10.5682 13.4993 10.567C13.4573 10.567 13.4348 10.5374 13.4357 10.4921Z" fill="#BF002E"/>
<path d="M13.7613 10.7104C13.7613 10.6734 13.7971 10.6343 13.8358 10.6355C13.8754 10.633 13.917 10.6726 13.917 10.7109C13.9166 10.7433 13.8741 10.772 13.8342 10.772C13.7975 10.7749 13.7609 10.7425 13.7613 10.7104Z" fill="#BF002E"/>
<path d="M14.0358 10.3057C14.0358 10.2762 14.0807 10.2395 14.1232 10.2399C14.1506 10.2408 14.1943 10.2757 14.1935 10.3078C14.1785 10.3606 14.1519 10.3827 14.1232 10.3827C14.0674 10.3819 14.0349 10.3598 14.0358 10.3057Z" fill="#BF002E"/>
<path d="M14.3686 10.5886C14.3695 10.5504 14.3878 10.5166 14.434 10.5171C14.4718 10.5175 14.501 10.5504 14.5005 10.587C14.5005 10.6269 14.4706 10.6652 14.4323 10.6606C14.3865 10.6606 14.3686 10.6248 14.3686 10.5886Z" fill="#BF002E"/>
<path d="M14.6932 10.242C14.6936 10.2041 14.7182 10.1741 14.7618 10.1741C14.806 10.1754 14.8322 10.2041 14.8313 10.2407C14.8313 10.2782 14.8051 10.3094 14.7598 10.309C14.7165 10.3094 14.6928 10.2769 14.6932 10.242Z" fill="#BF002E"/>
<path d="M16.2275 10.2607C16.2341 10.2204 16.2549 10.1979 16.2986 10.2058C16.3361 10.2141 16.3594 10.2449 16.3573 10.287C16.3498 10.3232 16.3149 10.3369 16.2737 10.3286C16.2341 10.3215 16.2221 10.2882 16.2275 10.2607Z" fill="#BF002E"/>
<path d="M16.6655 10.3414C16.6717 10.3094 16.6988 10.2815 16.7296 10.2873C16.7679 10.294 16.7899 10.3298 16.7828 10.3643C16.7762 10.4018 16.7441 10.4276 16.7063 10.4201C16.6738 10.4138 16.6584 10.3793 16.6655 10.3414Z" fill="#BF002E"/>
<path d="M17.2479 10.2876C17.2563 10.2485 17.2866 10.2289 17.3399 10.2389C17.3811 10.2464 17.3977 10.2751 17.3903 10.3147C17.3819 10.3571 17.3561 10.3904 17.3137 10.3825C17.26 10.3729 17.24 10.3296 17.2479 10.2876Z" fill="#BF002E"/>
<path d="M16.9096 10.6047C16.918 10.5598 16.9554 10.5398 17.005 10.5473C17.0432 10.5556 17.067 10.5931 17.0595 10.6326C17.052 10.6692 17.0158 10.6979 16.98 10.6905C16.928 10.6813 16.9026 10.6413 16.9096 10.6047Z" fill="#BF002E"/>
<path d="M17.3662 10.6368C17.375 10.5931 17.4112 10.5744 17.4549 10.5836C17.4956 10.589 17.5252 10.6223 17.516 10.6635C17.5085 10.7022 17.4678 10.7292 17.4303 10.7221C17.3858 10.7142 17.3579 10.6768 17.3662 10.6368Z" fill="#BF002E"/>
<path d="M14.1671 9.36845C13.9515 9.42879 13.7904 9.59484 13.7255 9.76089C13.7251 9.80875 13.845 9.85911 13.8487 9.87742C13.9066 9.89406 14.1047 9.85952 14.1741 9.86035C14.4093 9.86285 14.6769 9.75423 14.6095 9.61981C14.6095 9.61981 14.3831 9.30811 14.1671 9.36845Z" fill="white"/>
<path d="M17.2175 9.773C17.277 9.6777 17.0128 9.32272 16.8442 9.33936C16.6753 9.35642 16.5492 9.4201 16.416 9.6261C16.4085 9.63816 16.4193 9.69227 16.4114 9.706C16.4747 9.8117 16.6544 9.88828 16.8667 9.88744C16.9345 9.88744 17.0003 9.87912 17.059 9.86414C17.0623 9.79797 17.1588 9.86872 17.2175 9.773Z" fill="white"/>
<path fill-rule="evenodd" clip-rule="evenodd" d="M15.4877 15.2364C15.6675 15.2822 15.8356 15.1835 15.8635 15.0558C15.8831 14.9634 15.8552 14.8793 15.8236 14.8219C15.7936 14.7657 15.7616 14.7341 15.6966 14.6925C15.6313 14.6463 15.5306 14.6554 15.4985 14.6658L15.4702 14.6787C15.2921 14.7482 15.1864 15.1594 15.4877 15.2364ZM13.9192 12.7823C13.9138 13.0403 13.9117 13.2967 13.9067 13.6462C13.9346 13.6924 13.9708 13.7465 14.0208 13.8152C14.1061 13.9342 14.2288 13.5331 14.3774 13.6171C14.5364 13.707 14.5285 13.9879 14.6983 14.1211C14.7994 14.2002 14.9871 13.7507 15.0861 13.9967C15.1931 14.2626 15.3849 14.3238 15.5922 14.4295C15.685 14.3479 15.8206 14.3367 15.9343 14.2027C16.0408 14.077 16.1045 13.9488 16.1831 13.9242C16.3046 13.8864 16.3762 14.1864 16.5077 14.1386C16.7216 14.0599 16.6842 13.6654 16.8827 13.6121C16.9834 13.5851 16.9996 13.7582 17.1187 13.7761C17.2373 13.7944 17.3505 13.3787 17.4116 13.206C17.4424 13.1206 17.4861 13.0961 17.5523 13.1211C17.6459 13.1564 17.6518 13.2825 17.6605 13.4998C17.6738 13.8048 17.8141 14.0974 17.9843 14.3013C18.1541 14.5048 17.7217 14.392 17.5523 13.9505C17.4466 13.6758 17.4761 13.6737 17.3975 13.8152C17.3975 13.8152 17.2518 14.0674 17.1578 14.0924C17.0375 14.1248 16.9231 13.9484 16.9231 13.9484C16.9231 13.9484 16.782 14.4386 16.5406 14.4399C16.3138 14.4407 16.2376 14.1989 16.1844 14.2925C16.144 14.362 16.0941 14.4657 15.8906 14.5402C15.9996 14.6234 16.0936 14.7095 16.1348 14.8602V14.8606C16.2127 15.2189 15.9467 15.4453 15.6334 15.4686C15.4074 15.484 15.1336 15.3887 15.0612 15.1765C14.9817 14.9064 15.149 14.6596 15.3113 14.5435C15.161 14.504 15.0416 14.4016 14.9538 14.2734C14.9538 14.2734 14.8264 14.449 14.6383 14.4157C14.5185 14.3945 14.3578 14.1585 14.3004 13.9571C14.2975 13.948 14.1677 14.134 14.0149 14.109C13.8106 14.0757 13.8131 13.9255 13.714 13.7786C13.692 13.7461 13.6192 13.64 13.6042 13.7311C13.5925 13.8052 13.5676 13.9076 13.511 14.0204C13.4069 14.2293 13.106 14.4611 12.9741 14.3733C13.0919 14.3258 13.2883 14.0924 13.3491 13.8839C13.4165 13.6512 13.4331 13.4323 13.4082 13.2047C13.3886 13.0233 13.568 13.1236 13.687 13.248L13.6928 13.1306C13.6999 13.0004 13.7011 12.8543 13.7024 12.7149C13.7028 12.6533 13.6745 12.538 13.6025 12.4552C13.5284 12.3666 13.4144 12.1818 13.3495 12.0877C13.3495 12.0877 13.2733 11.9666 13.2246 11.8767C13.1805 11.7939 13.1393 11.6986 13.0794 11.5301C13.0303 11.3907 12.9779 11.1822 12.9491 10.9221C12.9183 10.6549 12.9233 10.5929 12.9154 10.4218C12.9508 10.5837 13.0028 10.8517 13.022 10.9366C13.1102 11.3237 13.183 11.5026 13.3191 11.7369C13.4548 11.9808 13.6275 12.1751 13.7915 12.347C13.8876 12.4477 14.0857 12.6117 14.2118 12.7132C14.3807 12.8485 14.4561 12.9096 14.6462 13.0295C14.8148 13.1356 15.1248 13.3512 15.5501 13.3462C15.9501 13.3416 16.1673 13.1847 16.2976 13.1098C16.5772 12.9479 16.7225 12.8206 16.9168 12.6387C17.1403 12.4298 17.2543 12.3254 17.39 12.1668C17.566 11.9612 17.7279 11.7415 17.8744 11.2238C17.9543 10.9408 18.0059 10.6099 18.0388 10.4252C18.0434 10.4909 18.0533 10.5654 18.033 10.8205C18.0138 11.0057 17.9947 11.1751 17.9543 11.3445C17.8956 11.5913 17.8419 11.7569 17.7441 11.9367C17.643 12.1219 17.616 12.1381 17.4462 12.3928C17.3276 12.5609 17.323 12.5676 17.318 12.6949C17.3142 13.2297 17.1952 13.9638 17.1028 12.8039C16.5148 13.3033 16.0092 13.6179 15.5302 13.6234C15.0595 13.6288 14.568 13.3175 13.9192 12.7823ZM16.7687 9.20791C16.67 9.23995 16.5161 9.37978 16.4624 9.46093C16.3954 9.56164 16.3533 9.74267 16.2672 9.74559C16.2339 9.73393 16.2659 9.65903 16.2156 9.66444C16.1507 9.679 16.1115 9.7356 16.1286 9.8026C16.1411 9.83631 16.1702 9.86169 16.2164 9.86711C16.3704 9.88708 16.3937 9.74517 16.4524 9.6636C16.5019 9.59577 16.6039 9.49131 16.6584 9.46052C16.7087 9.43139 16.7824 9.40933 16.8457 9.45885C16.8827 9.49048 16.8461 9.55956 16.8186 9.57371C16.7483 9.57954 16.6817 9.55374 16.6484 9.56081C16.6147 9.56789 16.5647 9.65861 16.5573 9.77097C16.6313 9.80094 16.6492 9.74475 16.7221 9.74351C16.8394 9.74184 16.9547 9.81883 17.0146 9.75974C17.075 9.69981 17.0733 9.59119 17.0729 9.54417C17.1728 9.54833 17.2181 9.6894 17.1761 9.76223C17.1428 9.80052 17.0621 9.79303 17.0625 9.86419C17.4033 9.93286 17.4353 9.79095 17.4616 9.71396C17.4803 9.65195 17.4732 9.60118 17.4445 9.51628C17.3446 9.26326 17.0412 9.11885 16.7687 9.20791ZM13.615 9.8542C13.6753 9.88583 13.8035 9.94784 13.9051 9.91829C13.9171 9.87917 13.8838 9.86045 13.8622 9.86003C13.7981 9.85753 13.7527 9.80052 13.7544 9.77389C13.7619 9.68691 13.8518 9.54625 13.9575 9.49048C14.054 9.42181 14.1285 9.45885 14.1568 9.51212C14.1548 9.55374 14.1398 9.58536 14.104 9.59327C14.0486 9.60576 14.0087 9.5579 13.9675 9.57579C13.8897 9.65736 13.92 9.75557 13.9479 9.78928C13.9758 9.82299 14.0087 9.83589 14.0203 9.82507C14.0724 9.7589 14.1976 9.76015 14.3237 9.77056C14.3774 9.73269 14.3803 9.64113 14.3953 9.56289C14.4852 9.46093 14.5301 9.6661 14.5896 9.74767C14.6288 9.80094 14.6712 9.86461 14.7245 9.87002C14.8156 9.87917 14.9342 9.80593 14.8889 9.67193C14.8626 9.63738 14.7907 9.70688 14.7619 9.68399C14.6529 9.58037 14.7511 9.36896 14.5247 9.25577C14.2825 9.13425 13.9067 9.17628 13.7565 9.36522C13.6982 9.43846 13.6346 9.51961 13.5871 9.64363C13.5642 9.72603 13.5426 9.81134 13.615 9.8542ZM15.9276 10.7727C15.779 10.7281 15.7445 10.8871 15.5934 10.8867C15.3816 10.8867 15.3375 10.751 15.2251 10.7627C15.1327 10.7731 15.0849 10.9133 15.022 10.9229C14.9717 10.9129 14.9821 10.9978 15.0458 11.014C15.1731 11.0461 15.1452 10.9395 15.2293 10.9691C15.2788 10.9882 15.2892 11.0731 15.432 11.1385C15.5739 11.203 15.7154 11.126 15.8427 11.0107C15.9234 10.9325 16.0762 10.9379 16.0371 10.8896C16.0029 10.8734 15.9784 10.7876 15.9276 10.7727ZM16.2364 8.83669C16.2464 8.87789 16.392 8.83711 16.4603 8.81089C16.5127 8.7905 16.5568 8.76761 16.6234 8.75388C16.6692 8.74431 16.7354 8.73765 16.7803 8.73723C16.8835 8.73682 16.9501 8.73806 17.0392 8.75263C17.1798 8.77594 17.4449 8.91452 17.4666 8.85376C17.4907 8.73973 17.3908 8.64817 17.3151 8.60697C17.1274 8.50585 16.8411 8.45341 16.5851 8.55704C16.4994 8.59782 16.4703 8.63236 16.3895 8.68729C16.3334 8.72516 16.2301 8.78634 16.2364 8.83669ZM15.2239 11.8206C15.2568 11.8193 15.3853 11.8068 15.4186 11.8039C15.7457 11.7735 16.0454 11.858 16.3475 11.7715C16.2435 11.868 16.1586 12.0191 16.0092 12.0919C15.8494 12.1701 15.5572 12.1705 15.3275 12.1543C15.0953 12.1385 14.9055 12.012 14.7432 11.9246C14.6995 12.0557 14.7698 12.106 14.8706 12.1955C14.9846 12.2975 15.1623 12.4365 15.4303 12.4435C15.8186 12.4535 16.1244 12.4161 16.3192 12.0952C16.3787 11.9899 16.5394 11.7739 16.7067 11.694C16.8003 11.6495 17.0146 11.5492 16.9792 11.4939C16.9156 11.4123 16.7891 11.4269 16.6983 11.4473C16.6292 11.4614 16.6084 11.5879 16.4932 11.5971C16.2202 11.6325 15.9551 11.5367 15.6184 11.5476C15.3762 11.5546 15.1852 11.6108 14.9263 11.6312C14.6766 11.6512 14.5901 11.5193 14.3558 11.4905C14.2492 11.4768 14.2297 11.5384 14.3104 11.6399C14.3861 11.7178 14.5177 11.7918 14.6221 11.7902C14.8343 11.7906 15.0133 11.8347 15.2239 11.8206ZM14.5489 8.78717C14.4906 8.77219 14.4565 8.7493 14.3824 8.74056C14.3362 8.73515 14.2696 8.73099 14.2247 8.73349C14.1223 8.73931 14.0707 8.73848 13.9671 8.76512C13.8289 8.80049 13.5726 8.95197 13.5463 8.89246C13.5243 8.81256 13.5659 8.74056 13.6179 8.68854C13.8014 8.62945 13.9529 8.59449 14.1872 8.5021C14.2621 8.50418 14.337 8.51625 14.4082 8.54164C14.4844 8.57285 14.5418 8.61571 14.6121 8.65941C14.6691 8.69478 14.7807 8.75013 14.7736 8.79924C14.759 8.84086 14.6192 8.8059 14.5489 8.78717Z" fill="#401E00"/>
</svg>
