<svg width="25" height="25" viewBox="0 0 25 25" fill="none" xmlns="http://www.w3.org/2000/svg">
<path d="M24.0125 2.584V21.4411C24.0125 22.8607 22.8607 24.0125 21.4411 24.0125H8.28394C8.80894 23.1339 9.48394 21.8697 9.7518 20.8357C9.91251 20.2197 10.5714 17.7072 10.5714 17.7072C11 18.5268 12.2536 19.2179 13.5875 19.2179C17.5572 19.2179 20.4125 15.5697 20.4125 11.0375C20.4125 6.69291 16.8661 3.44114 12.3018 3.44114C6.62323 3.44114 3.61251 7.25005 3.61251 11.4018C3.61251 13.3304 4.64108 15.7304 6.28037 16.4965C6.53216 16.6143 6.66073 16.5607 6.71966 16.3197C6.76251 16.1375 6.98751 15.2429 7.08394 14.8304C7.11608 14.6965 7.10001 14.584 6.99287 14.4554C6.4518 13.7965 6.01251 12.5858 6.01251 11.4554C6.01251 8.55184 8.20894 5.7447 11.9536 5.7447C15.1839 5.7447 17.45 7.94648 17.45 11.0965C17.45 14.6536 15.6554 17.1179 13.3143 17.1179C12.0232 17.1179 11.0589 16.0518 11.3643 14.7393C11.7339 13.175 12.4518 11.4875 12.4518 10.3572C12.4518 7.51791 8.40716 7.90898 8.40716 11.6965C8.40716 12.859 8.79823 13.6518 8.79823 13.6518C7.11608 20.7661 6.8643 20.8572 7.21251 23.9697L7.33037 24.0125H2.58394C1.1643 24.0125 0.0125122 22.8607 0.0125122 21.4411V2.584C0.0125122 1.16436 1.1643 0.0125732 2.58394 0.0125732H21.4411C22.8607 0.0125732 24.0125 1.16436 24.0125 2.584Z" fill="#37393D"/>
</svg>
